<svg width="16" height="12" viewBox="0 0 16 12" fill="none" xmlns="http://www.w3.org/2000/svg">
<path fill-rule="evenodd" clip-rule="evenodd" d="M5.86332 12.0001C5.58732 12.0001 5.32332 11.8861 5.13432 11.6851L0.271321 6.50611C-0.107679 6.10411 -0.086679 5.47111 0.315321 5.09311C0.718321 4.71511 1.35132 4.73511 1.72832 5.13711L5.85332 9.52811L14.2613 0.326113C14.6353 -0.0828873 15.2673 -0.109887 15.6753 0.262113C16.0823 0.634113 16.1103 1.26711 15.7383 1.67411L6.60132 11.6741C6.41432 11.8801 6.14832 11.9981 5.87032 12.0001H5.86332Z" fill="#49D3CC"/>
</svg>
