{
  "name": "Categories",
  "base": "PersistedModel",
  "idInjection": true,
  "options": {
    "validateUpsert": true
  },
  "properties": {
    "id": {
      "type": "number"
    },
    "name": {
      "type": "string"
    },
    "type": {
      "type": "string"
    },
    "isActive": {
      "type": "boolean",
      "default": true
    },
    "isDeleted": {
      "type": "boolean",
      "default": false
    },
    "createdAt": {
      "type": "string"
    },
    "updatedAt": {
      "type": "string"
    }
  },
  "validations": [],
  "relations": {
    "products": {
      "type": "hasMany",
      "model": "Products",
      "foreignKey": "",
      "options": {
        "nestRemoting": true
      }
    },
    "images": {
      "type": "belongsTo",
      "model": "StorageFile",
      "foreignKey": "",
      "options": {
        "nestRemoting": true
      }
    },
    "vendors": {
      "type": "hasMany",
      "model": "Vendors",
      "foreignKey": "",
      "options": {
        "nestRemoting": true
      }
    }
  },
  "acls": [
    {
      "accessType": "*",
      "principalType": "ROLE",
      "principalId": "$everyone",
      "permission": "DENY"
    },
    {
      "accessType": "READ",
      "principalType": "ROLE",
      "principalId": "$authenticated",
      "permission": "ALLOW"
    },
    {
      "accessType": "WRITE",
      "principalType": "ROLE",
      "principalId": "Root",
      "permission": "ALLOW"
    },
    {
      "accessType": "READ",
      "principalType": "ROLE",
      "principalId": "$unauthenticated",
      "permission": "ALLOW"
    }
  ],
  "methods": {}
}
