{
  "name": "ProductPrice",
  "base": "PersistedModel",
  "idInjection": true,
  "options": {
    "validateUpsert": true
  },
  "properties": {
    "id": {
      "type": "number"
    },
    "productUnit": {
      "type": "string"
    },
    "unitType": {
      "type": "string"
    },
    "unitPrice": {
      "type": "string"
    },
    "sellingPrice": {
      "type": "string"
    },
    "productsId": {
      "type": "number"
    },
    "createdAt": {
      "type": "string"
    },
    "updatedAt": {
      "type": "string"
    },
    "stripeProductPriceId": {
      "type": "string"
    }
  },
  "validations": [],
  "relations": {
    "products": {
      "type": "belongsTo",
      "model": "Products",
      "foreignKey": "",
      "options": {
        "nestRemoting": true
      }
    },
    "vendors": {
      "type": "belongsTo",
      "model": "Vendors",
      "foreignKey": "",
      "options": {
        "nestRemoting": true
      }
    }
  },
  "acls": [
    {
      "accessType": "*",
      "principalType": "ROLE",
      "principalId": "$everyone",
      "permission": "DENY"
    },
    {
      "accessType": "READ",
      "principalType": "ROLE",
      "principalId": "$authenticated",
      "permission": "ALLOW"
    },
    {
      "accessType": "WRITE",
      "principalType": "ROLE",
      "principalId": "Root",
      "permission": "ALLOW"
    },
    {
      "accessType": "WRITE",
      "principalType": "ROLE",
      "principalId": "Vendor",
      "permission": "ALLOW"
    }
  ],
  "methods": {}
}
