<svg width="1440" height="239" viewBox="0 0 1440 239" fill="none" xmlns="http://www.w3.org/2000/svg">
<mask id="mask0" mask-type="alpha" maskUnits="userSpaceOnUse" x="0" y="0" width="1440" height="239">
<rect width="1440" height="239" fill="#2B2B2B"/>
</mask>
<g mask="url(#mask0)">
<rect width="1440" height="239" fill="#2B2B2B"/>
<circle opacity="0.025" cx="1515.19" cy="-25.1372" r="248" transform="rotate(-10.2833 1515.19 -25.1372)" fill="white"/>
<circle opacity="0.025" cx="1301.29" cy="-139.794" r="248" transform="rotate(-10.2833 1301.29 -139.794)" fill="white"/>
<circle opacity="0.04" cx="16.498" cy="-10.502" r="248" transform="rotate(-45 16.498 -10.502)" fill="white"/>
<circle opacity="0.04" cx="-90.2749" cy="-117.275" r="248" transform="rotate(-45 -90.2749 -117.275)" fill="white"/>
</g>
</svg>
