<svg width="84" height="84" viewBox="0 0 84 84" fill="none" xmlns="http://www.w3.org/2000/svg">
<g opacity="0.2">
<path fill-rule="evenodd" clip-rule="evenodd" d="M3.5 14C3.5 8.20101 8.20101 3.5 14 3.5H70C75.799 3.5 80.5 8.20101 80.5 14V70C80.5 75.799 75.799 80.5 70 80.5H14C8.20101 80.5 3.5 75.799 3.5 70V14ZM14 10.5C12.067 10.5 10.5 12.067 10.5 14V51.0503L18.5251 43.0251C19.892 41.6583 22.108 41.6583 23.4749 43.0251L35 54.5503L53.5251 36.0251C54.892 34.6583 57.108 34.6583 58.4749 36.0251L73.5 51.0503V14C73.5 12.067 71.933 10.5 70 10.5H14ZM73.5 60.9498L56 43.4497L37.4749 61.9749C36.108 63.3417 33.892 63.3417 32.5251 61.9749L21 50.4497L10.5 60.9497V70C10.5 71.933 12.067 73.5 14 73.5H70C71.933 73.5 73.5 71.933 73.5 70V60.9498Z" fill="#2B2B2B"/>
</g>
</svg>
