<svg width="64" height="64" viewBox="0 0 64 64" fill="none" xmlns="http://www.w3.org/2000/svg">
<rect width="64" height="64" rx="16" fill="#FFD63F"/>
<path d="M27.0879 30.5347L32.6113 36.3632C33.2102 36.9952 34.2947 37.0854 35.503 36.4899C38.5779 35.2151 39.601 34.9043 40.185 35.5206L46.5343 42.2205C47.2848 43.0125 47.0845 44.3317 46.2452 45.2173C41.8873 49.816 34.804 49.816 30.446 45.2173L18.5853 32.7016C14.2492 28.1259 14.2492 20.7234 18.5853 16.1478C19.4423 15.2435 20.7584 15.0209 21.5372 15.8428L27.8864 22.5427C28.4367 23.1234 28.1417 24.205 26.9402 27.4278C26.3816 28.6858 26.4711 29.8839 27.0879 30.5347Z" fill="#2B2B2B"/>
</svg>
